<svg xmlns="http://www.w3.org/2000/svg" width="719.921" height="270.029" viewBox="0 0 719.921 270.029">
  <defs>
    <style>
    .a {
      fill: #f5b6c4;
    }

    .a,
    .b {
      stroke: #000;
    }

    .b {
      fill: #6d9ce8;
    }

    #wrap_all path {
      stroke-width: 2px;
      animation: svg 3s ease-in both infinite;
    }

    @keyframes svg {
      0% {
        fill: transparent;
        stroke-dasharray: 2000px;
        stroke-dashoffset: 2000px;
      }

      50% {
        stroke-dashoffset: 0;
      }
    }
    </style>
  </defs>
  <g id="wrap_all" transform="translate(-129.66 -285.074)">
    <g transform="translate(130.728 295.574)">
      <path class="a" d="M380.67,489.821c.132-3.05.132-4.908.132-9.816,0-1.194,0-4.776-.132-10.878-9.552,1.99-26.135,4.51-29.319,4.51-1.326,0-2.255-.663-2.918-2.255a51.961,51.961,0,0,0-4.113-7.428c0-.134-1.061-1.328-3.184-3.849a175.84,175.84,0,0,0,51.339-7.958,76.872,76.872,0,0,0,18.309-8.226c5.837,5.173,10.612,11.276,10.612,13.531,0,1.195-.8,1.726-2.521,1.99a32.329,32.329,0,0,0-7.428,1.726c-6.9,2.255-8.092,2.653-14.859,4.376.134,5.176.134,5.97.134,13v11.144c19.765-.266,34.358-.663,38.6-1.063a5.009,5.009,0,0,1,1.326-.132c1.726,0,2.123,1.326,2.123,7.031,0,8.491-.134,8.757-2.123,8.757-.264,0-4.508-.266-5.968-.4-5.573-.4-13.4-.529-34.89-.529-1.592,13.265-5.439,24.409-11.541,33.7a82.514,82.514,0,0,1-15.388,16.98,3.51,3.51,0,0,1-1.992.795c-1.192,0-1.192,0-5.571-2.653-2.653-1.724-5.971-3.05-10.878-4.776,9.684-5.7,16.052-11.807,21.225-20.562a66.054,66.054,0,0,0,7.96-23.216c-24.675.266-34.756.665-40.992,1.726-1.458.132-1.989.264-2.387.264-1.195,0-1.724-.4-1.99-1.324-.929-3.052-1.594-8.889-1.858-15.257,5.7.663,14.194.929,31.308.929H367.4Z" transform="translate(-332.381 -295.795)" />
      <path class="a" d="M450.058,482.692c-4.245,27.99-15.388,48.686-33.166,61.819-5.039,3.713-9.02,5.968-10.347,5.968-.929,0-1.46-.4-2.521-1.59a41.965,41.965,0,0,0-10.878-9.023c15.257-7.031,25.206-16.052,32.1-28.919,4.51-8.357,7.3-17.246,8.757-28.256-2.786,0-4.776.132-6.236.132-11.807,0-17.644.266-22.949,1.326-1.326.134-1.858.266-2.123.266a2.606,2.606,0,0,1-2.786-2.123,131.87,131.87,0,0,1-1.724-14.857c10.215,1.194,16.849,1.46,32.635,1.46h4.642c.266-5.307.4-8.491.4-12.736a63.988,63.988,0,0,0-.663-11.144c15.388.663,19.369,1.592,19.369,3.981,0,.529,0,.529-.8,2.387-.929,2.387-1.458,5.439-1.856,11.675-.134,2.253-.266,3.448-.4,5.837h19.765c5.97-.266,5.97-.266,7.031-.4a31.266,31.266,0,0,0,4.378-1.724,6.747,6.747,0,0,1,1.724-.266c2.121,0,3.981,1.195,7.562,4.776s5.042,5.7,5.042,7.429c0,1.328,0,1.46-1.726,5.042a27.429,27.429,0,0,0-1.061,6.765c-1.328,23.746-3.981,41.258-7.165,48.289-2.121,4.776-5.173,7.562-10.347,9.418-3.45,1.326-6.9,1.726-13.4,1.726-8.755,0-9.949-.4-10.481-3.45-.661-4.245-1.724-7.3-4.245-12.736a63,63,0,0,0,13.267,1.328c7.692,0,9.949-1.063,11.673-5.573,3.052-8.226,5.439-27.727,5.7-46.962Z" transform="translate(-268.002 -294.635)" />
      <path class="a" d="M463.431,493.952c-.264,0-.929.132-1.061.132-2.918,0-4.113-4.51-5.042-18.175,6.5,1.063,15.654,1.46,40.329,1.46,26.532,0,33.7,0,36.216-.266a17.14,17.14,0,0,0,5.042-1.061,6.129,6.129,0,0,1,2.521-.531c1.99,0,3.581.929,5.7,3.184,3.581,4.113,5.968,7.826,5.968,9.418,0,1.46-.663,2.521-2.255,4.245-1.061.929-1.724,2.123-4.245,7.828-8.888,19.5-18.838,31.44-34.492,41.389-7.163,4.644-18.7,9.952-21.357,9.952-1.858,0-2.918-.8-5.173-3.45-3.45-4.113-5.044-5.573-8.757-7.431,15.123-4.51,28.921-12.071,38.737-21.491,7.429-7.163,13-16.449,16.849-27.99C482.138,491.829,472.851,492.227,463.431,493.952Zm43.381-47.1a279.61,279.61,0,0,0,29.051-1.061h1.594c1.724,0,2.387,1.326,2.519,5.307,0,1.592,0,3.05.134,4.376v.531c0,4.776-.531,6.1-2.257,6.1-.529,0-1.59-.132-2.785-.132-2.521-.266-12.47-.531-16.583-.531-19.9,0-34.093.266-41.921.929H475.5c-3.45,0-3.979-1.99-4.776-16.847C479.351,446.591,487.708,446.856,506.812,446.856Z" transform="translate(-200.001 -294.088)" />
    </g>
    <g transform="translate(-108.532 17.176)">
      <path class="b" d="M586.061,336.474c-4.111,7.11-9.764,11.051-15.589,11.051-8.908,0-15.249-8.738-15.249-20.9,0-13.535,6.854-25.185,18.588-31.351,5.739-3.085,11.907-4.454,20.045-4.454,17.9,0,31.179,12.677,31.179,29.637,0,14.99-7.367,25.782-21.585,31.864a20.4,20.4,0,0,1-6.168,1.884c-1.028,0-1.457-.341-2.57-1.968a18.02,18.02,0,0,0-5.4-5.4c17.646-4.538,25.612-12.847,25.612-26.725,0-7.11-3-13.106-8.309-16.874-3-2.057-5.4-2.913-10.109-3.684C594.113,317.629,591.287,327.479,586.061,336.474Zm-12.336-30.323a26.647,26.647,0,0,0-8.992,20.3c0,6.6,2.141,10.45,5.739,10.45,4.282,0,8.65-5.909,11.907-16.1,2.055-6.425,3.083-11.308,4.368-20.815C580.665,301.268,577.666,302.723,573.725,306.151Z" transform="translate(332.577 23.599)" />
      <g transform="translate(239.26 268.398)">
        <path class="b" d="M310.269,286.41a56.161,56.161,0,0,0,2.909-11.5c11.5,4.1,18.514,8.067,18.514,10.579,0,.661-.265,1.057-1.19,2.116a36.6,36.6,0,0,0-6.611,10.181c-6.611,13.621-10.183,20.1-16.4,29.752a170.481,170.481,0,0,1,16.4,15.6c1.188,1.322,1.718,2.248,1.718,3.3,0,1.324-1.587,3.7-5.289,7.671-2.777,3.042-4.364,4.364-5.554,4.364-.661,0-1.322-.4-2.379-1.587-7.933-8.992-8.728-9.918-14.547-15.735-11.238,14.148-24.064,26.181-36.495,34.381-3.968,2.775-6.349,3.834-7.8,3.834-1.322,0-1.455,0-4.762-3.173a58.187,58.187,0,0,0-9.52-6.613c18.247-8.99,33.324-21.552,46.546-39.272-6.215-5.158-9.389-7.406-20.628-14.678-2.644-1.587-2.909-1.851-2.909-2.777,0-1.453,1.587-3.7,5.817-8.594,1.455-1.72,2.512-2.381,3.572-2.381,1.718,0,10.579,5.95,23.141,15.339A172.2,172.2,0,0,0,310.269,286.41Z" transform="translate(-239.26 -261.549)" />
        <path class="b" d="M307.2,322.746a128.372,128.372,0,0,0-13.091-21.819,3.339,3.339,0,0,1-.926-1.851c0-.926,2.248-2.908,6.347-5.421,3.173-1.985,5.289-3.042,6.349-3.042.659,0,1.322.4,2.248,1.72,6.743,8.329,17.188,26.049,17.188,29.091,0,.792-.528,1.455-2.246,2.644-3.042,2.248-10.051,5.686-11.24,5.686S310.639,329.754,307.2,322.746Zm80.529-20.232c0,.661-.265,1.19-1.322,3.175-1.455,2.512-2.381,4.5-4.629,10.577-10.446,28.3-23.67,47.339-44.3,63.737-5.688,4.5-10.977,7.8-12.43,7.8-1.059,0-1.191-.133-4.629-2.777-1.983-1.718-6.215-3.968-10.579-5.686,25.653-14.017,42.183-32.4,52.363-58.182,4.1-10.183,6.084-18.646,6.349-26.71C380.591,297.226,387.732,300.266,387.732,302.514Zm-5.95-9.916a48.027,48.027,0,0,0-7.272-11.373,2.139,2.139,0,0,1-.53-1.188c0-1.059,5.421-4.629,7.141-4.629a1.843,1.843,0,0,1,1.19.4c2.644,1.983,10.446,13.487,10.446,15.208,0,.792-.265,1.188-1.322,2.114-1.985,1.587-5.819,3.571-6.611,3.571C383.9,296.7,383.633,296.432,381.782,292.6Zm20.5-17.059c2.646,3.834,4.364,7.009,4.364,8.2,0,.926-.528,1.455-2.114,2.512-2.646,1.587-4.629,2.512-5.421,2.512s-.794,0-2.911-4.1a63.613,63.613,0,0,0-7.141-10.842,2,2,0,0,1-.527-1.059c0-1.19,5.025-4.364,7.008-4.364C396.856,268.4,398.178,269.722,402.277,275.539Z" transform="translate(-182.499 -268.398)" />
        <path class="b" d="M369.872,348.19a262.609,262.609,0,0,1,44.034,12.428c11.107,4.232,12.958,5.292,12.958,7.141,0,1.455-1.851,7.8-3.307,11.371-.926,2.381-1.718,3.175-2.909,3.175-.792,0-.792,0-14.148-6.084-12.827-5.817-37.423-12.693-52.1-14.545-5.027-.661-5.423-.794-5.423-2.248,0-1.324,1.718-7.274,3.173-10.844.661-1.851,1.455-2.644,2.908-2.644C355.59,345.942,366.038,347.527,369.872,348.19Zm42.975-44.828a205.485,205.485,0,0,0-25.918-8.99c-8.329-2.116-21.554-4.893-26.445-5.289-1.983-.265-2.777-.794-2.777-1.983a72.067,72.067,0,0,1,2.909-11.373,2.4,2.4,0,0,1,2.514-1.851,9.949,9.949,0,0,1,1.849.133c.265.131,1.72.265,3.7.661a257.957,257.957,0,0,1,42.447,10.049c7.933,2.777,8.728,3.173,8.728,4.893a115.116,115.116,0,0,1-3.042,12.164c-.53,1.587-1.191,2.116-2.248,2.116A5.278,5.278,0,0,1,412.847,303.361ZM402.666,318.7c6.743,2.512,8.065,3.436,8.065,5.287a86.419,86.419,0,0,1-3.04,11.769c-.53,1.455-1.059,1.851-2.116,1.851a4.2,4.2,0,0,1-1.985-.661,147.8,147.8,0,0,0-17.057-6.745c-7.668-2.379-20.232-5.554-25.124-6.082-2.25-.4-2.644-.661-2.644-2.116,0-2.116,2.114-9.918,3.171-12.166a2.243,2.243,0,0,1,2.116-1.188C368.152,308.653,392.748,315,402.666,318.7Z" transform="translate(-123.772 -262.634)" />
        <path class="b" d="M439.065,340.934A198.444,198.444,0,0,1,414.2,353.5c-5.95,2.512-9.653,3.834-10.579,3.834a2.814,2.814,0,0,1-2.381-1.191c-4.1-4.629-6.213-6.48-10.708-9.257a194.627,194.627,0,0,0,34.247-14.148c14.678-7.406,23.141-13.619,37.687-27.371-39.8,0-45.885.131-53.026,1.19a2.6,2.6,0,0,1-.926.131c-1.057,0-1.455-.53-1.72-2.116a75.6,75.6,0,0,1-.926-13.223c8.331,1.057,19.175,1.587,33.192,1.718v-5.552a121.8,121.8,0,0,0-.926-14.282c7.272,0,12.164.4,15.735,1.19,1.851.4,2.777,1.191,2.777,2.512a3.552,3.552,0,0,1-.53,1.718c-.792,1.72-1.322,5.158-1.322,9.126V293.2c12.3,0,16.661-.4,19.569-1.851a1.951,1.951,0,0,1,.928-.133c1.718,0,3.569,1.455,6.213,4.5,3.173,3.7,4.5,5.95,4.5,7.406,0,1.322-.659,2.114-2.379,3.3-2.381,1.587-4.5,3.438-10.183,8.6a186.371,186.371,0,0,1-18.777,15.6v28.032c0,4.1.265,13.487.4,16.4.131,2.114.131,3.436.131,3.966v1.057a1.6,1.6,0,0,1-.794,1.587c-.924.53-5.156.926-8.726.926h-.926c-5.819-.131-6.084-.263-6.215-1.849,0-1.19,0-1.322.265-6.215.131-3.968.265-10.71.265-18.512Zm28.693-7.406c3.042-4.1,4.232-5.289,5.289-5.289s2.909.792,7.406,2.909c7.406,3.571,15.735,8.728,20.76,13.091,1.19.926,1.455,1.455,1.455,1.983,0,1.324-.926,2.911-4.629,8.067-2.116,2.777-3.307,3.836-4.5,3.836a2.987,2.987,0,0,1-1.985-.928c-7.8-6.611-18.247-13.488-24.99-16.263-1.589-.53-1.985-.928-1.985-1.72C464.585,338.289,465.775,336.041,467.758,333.529Z" transform="translate(-80.03 -263.312)" />
        <path class="b" d="M453.463,323.04c-.265,0-.926.133-1.059.133-2.909,0-4.1-4.5-5.025-18.116,6.48,1.057,15.6,1.453,40.2,1.453,26.445,0,33.586,0,36.1-.263a17.1,17.1,0,0,0,5.025-1.059,6.136,6.136,0,0,1,2.512-.527c1.983,0,3.57.926,5.686,3.173,3.571,4.1,5.95,7.8,5.95,9.389,0,1.455-.661,2.512-2.248,4.23-1.057.926-1.72,2.116-4.23,7.8-8.861,19.438-18.779,31.341-34.381,41.257-7.141,4.629-18.646,9.918-21.289,9.918-1.851,0-2.911-.794-5.158-3.438-3.438-4.1-5.025-5.554-8.728-7.406,15.074-4.5,28.829-12.032,38.613-21.421,7.406-7.141,12.958-16.4,16.792-27.9C472.106,320.924,462.851,321.322,453.463,323.04ZM496.7,276.1a278.243,278.243,0,0,0,28.96-1.059h1.587c1.718,0,2.379,1.322,2.512,5.289,0,1.587,0,3.042.131,4.364v.528c0,4.762-.53,6.084-2.248,6.084-.53,0-1.589-.133-2.777-.133-2.512-.263-12.43-.528-16.529-.528-19.834,0-33.985.265-41.784.926H465.5c-3.438,0-3.968-1.985-4.76-16.794C469.329,275.835,477.661,276.1,496.7,276.1Z" transform="translate(-20.198 -261.685)" />
        <path class="b" d="M534.5,281.653a2.258,2.258,0,0,1,1.586,2.248,5.962,5.962,0,0,1-.265,1.851c-.792,2.909-.926,5.025-.926,10.314-.265,32.265-6.082,52.893-19.968,70.479-3.04,3.7-4.23,4.891-5.554,4.891a5.689,5.689,0,0,1-2.248-.792c-3.569-2.248-6.876-3.438-12.826-4.76,9.126-9.257,12.7-14.148,16.661-23.141,5.554-12.43,7.8-24.992,7.8-43.9a103.676,103.676,0,0,0-1.322-19.307C524.849,279.668,530.93,280.462,534.5,281.653Zm14.148,12.827a115.82,115.82,0,0,0-1.191-17.19c14.282.53,19.438,1.587,19.438,4.23a6.777,6.777,0,0,1-.661,2.646,16.76,16.76,0,0,0-.926,4.891c-.4,3.571-.4,3.571-.661,61.754,16.794-9.522,27.769-18.646,38.876-32.663.265,6.876.794,11.9,1.983,15.868a5.639,5.639,0,0,1,.4,2.248c0,2.116-1.322,3.834-7.406,9.52-9.785,8.992-16.4,13.621-28.7,20.1a25.141,25.141,0,0,0-6.213,4.1,5.145,5.145,0,0,1-3.042,1.322c-1.587,0-6.346-3.173-9.785-6.48-2.646-2.644-3.836-4.626-3.836-6.347a6.525,6.525,0,0,1,.53-2.248c.926-2.512,1.191-4.893,1.191-12.166Z" transform="translate(29.193 -259.04)" />
      </g>
    </g>
    <g transform="translate(214.01 266.248)">
      <path d="M316.725,195.88h7.42c5.188,0,7.42,2.413,7.42,7.33v1.958c0,3.277-1.047,5.372-3.279,6.282v.092c2.5.773,3.324,3.14,3.324,6.737v5.6a9.374,9.374,0,0,0,.547,3.87h-5.1a9.8,9.8,0,0,1-.455-3.917v-5.827c0-2.958-.865-3.915-3.142-3.915h-1.73V227.75h-5.007Zm6.827,13.659c1.869,0,3.005-.82,3.005-3.368v-2.46c0-2.275-.773-3.277-2.548-3.277h-2.277v9.105Z" transform="translate(0.587)" />
      <path d="M340.845,207.994v5.555h-9.471v3.915c0,2.048.82,2.822,2.414,2.822,1.548,0,2.413-.773,2.413-2.822V216.6h4.644v.408c0,4.827-2.505,7.559-7.149,7.559s-7.147-2.732-7.147-7.559v-9.014c0-4.825,2.5-7.557,7.147-7.557S340.845,203.169,340.845,207.994Zm-4.735,1.73v-2.185c0-2.048-.865-2.822-2.369-2.822s-2.367.773-2.367,2.822v2.185Z" transform="translate(8.431 3.638)" />
      <path d="M335.943,217.1v-9.2c0-4.735,2.46-7.467,7.057-7.467,4.643,0,6.874,2.913,6.874,7.467v1.412H345.23v-1.869c0-1.728-.592-2.73-2.23-2.73s-2.23,1-2.23,2.73v10.107c0,1.73.592,2.732,2.23,2.732s2.23-1,2.23-2.732v-2.322h4.644V217.1c0,4.552-2.23,7.467-6.874,7.467C338.4,224.566,335.943,221.835,335.943,217.1Z" transform="translate(15.931 3.638)" />
      <path d="M345.087,217.008v-9.014c0-4.825,2.55-7.557,7.1-7.557s7.1,2.732,7.1,7.557v9.014c0,4.827-2.548,7.559-7.1,7.559S345.087,221.835,345.087,217.008Zm9.379.457v-9.926c0-1.593-.5-2.822-2.275-2.822s-2.277,1.228-2.277,2.822v9.926c0,1.638.547,2.822,2.277,2.822S354.466,219.1,354.466,217.465Z" transform="translate(23.232 3.638)" />
      <path d="M353.937,200.69h4.917l2.96,16.707,2.914-16.707h4.507l-4.688,23.219h-5.919Z" transform="translate(30.298 3.84)" />
      <path d="M377.691,207.994v5.555h-9.469v3.915c0,2.048.818,2.822,2.412,2.822,1.548,0,2.413-.773,2.413-2.822V216.6h4.644v.408c0,4.827-2.5,7.559-7.147,7.559s-7.149-2.732-7.149-7.559v-9.014c0-4.825,2.505-7.557,7.149-7.557S377.691,203.169,377.691,207.994Zm-4.735,1.73v-2.185c0-2.048-.865-2.822-2.367-2.822s-2.367.773-2.367,2.822v2.185Z" transform="translate(37.849 3.638)" />
      <path d="M383.111,200.71V205.4a5.4,5.4,0,0,0-1.228-.135c-2.687,0-4.1,1.865-4.1,5.462v13.386h-4.827V200.892h4.188l.092,3.915q.955-4.37,4.507-4.37A2.91,2.91,0,0,1,383.111,200.71Z" transform="translate(45.486 3.638)" />
      <path d="M323.457,230.777V244.07c0,1.457.5,2,1.867,2a5.56,5.56,0,0,0,1.638-.273v4.1a7,7,0,0,1-2.64.455c-3.823,0-5.692-1.867-5.692-5.645V230.777h-2.64v-4.1h2.868l.455-6.284h4.144v6.284h3.505v4.1Z" transform="translate(0 19.574)" />
      <path d="M337.624,234.057v16.891H332.8V234.6c0-2-.545-3.05-2-3.05-1.365,0-2.458.955-2.458,3.734v15.661h-4.825V219.08h4.825v10.289a4.745,4.745,0,0,1,4.1-2.1C335.668,227.274,337.624,229.277,337.624,234.057Z" transform="translate(6.006 18.524)" />
      <path d="M347.258,231.193v5.555h-9.469v3.915c0,2.048.818,2.822,2.412,2.822,1.548,0,2.414-.773,2.414-2.822V239.8h4.644v.41c0,4.825-2.5,7.557-7.147,7.557s-7.149-2.732-7.149-7.557v-9.016c0-4.825,2.5-7.557,7.149-7.557S347.258,226.368,347.258,231.193Zm-4.735,1.73v-2.185c0-2.048-.865-2.822-2.369-2.822s-2.365.773-2.365,2.822v2.185Z" transform="translate(13.551 22.161)" />
      <path d="M346.729,219.08h13.659v4.552h-8.65v8.422h6.874v4.554h-6.874V246.4h8.65v4.552H346.729Z" transform="translate(24.543 18.524)" />
      <path d="M365.859,247.311a9.326,9.326,0,0,1-.365-2.732,5.025,5.025,0,0,1-4.917,3.187c-3.1,0-5.054-2.23-5.054-5.827,0-3.642,1.5-5.737,5.6-7.74,3.323-1.638,3.779-2.048,3.779-3.324v-.455c0-1.867-.592-2.64-1.959-2.64-1.5,0-2.183.957-2.183,2.687v.865h-4.554v-.593c0-4.507,2.322-7.1,6.784-7.1,4.825,0,6.737,2.55,6.737,7.649v9.334a30.173,30.173,0,0,0,.547,6.692Zm-.957-7.557v-3.96a11.254,11.254,0,0,1-2.367,1.728,4.086,4.086,0,0,0-2.185,3.6c0,1.64.682,2.505,2.048,2.505C364.037,243.624,364.9,242.3,364.9,239.753Z" transform="translate(31.564 22.161)" />
      <path d="M375.434,223.909v4.69a5.3,5.3,0,0,0-1.228-.137c-2.687,0-4.1,1.865-4.1,5.462v13.386h-4.825V224.093h4.188l.092,3.913q.955-4.37,4.505-4.37A2.913,2.913,0,0,1,375.434,223.909Z" transform="translate(39.356 22.161)" />
      <path d="M379.334,230.777V244.07c0,1.457.5,2,1.865,2a5.551,5.551,0,0,0,1.638-.273v4.1a6.991,6.991,0,0,1-2.638.455c-3.825,0-5.692-1.867-5.692-5.645V230.777h-2.64v-4.1h2.867l.457-6.284h4.144v6.284h3.5v4.1Z" transform="translate(44.614 19.574)" />
      <path d="M393.5,234.057v16.891h-4.825V234.6c0-2-.547-3.05-2-3.05-1.367,0-2.458.955-2.458,3.734v15.661h-4.825V219.08h4.825v10.289a4.739,4.739,0,0,1,4.1-2.1C391.543,227.274,393.5,229.277,393.5,234.057Z" transform="translate(50.62 18.524)" />
    </g>
  </g>
</svg>