<svg xmlns="http://www.w3.org/2000/svg" xmlns:xlink="http://www.w3.org/1999/xlink" width="124" height="115" viewBox="0 0 124 115">
  <defs>
    <clipPath id="clip-path">
      <rect width="124" height="115" fill="none"/>
    </clipPath>
  </defs>
  <g id="set" transform="translate(-260 -1283)">
    <g id="bg">
      <g id="ptn" transform="translate(260 1283)" clip-path="url(#clip-path)">
        <g id="ptn-2" data-name="ptn" transform="translate(-260 -1283)">
          <rect id="bg-2" data-name="bg" width="18" height="18" transform="translate(260 1283)" fill="#6d9ce8"/>
          <path id="ptn-3" data-name="ptn" d="M387.938,751.678h8v8h1v-8h8v-1h-8v-8h8v-1h-18v18h1Zm0-9h8v8h-8Z" transform="translate(-126.938 541.322)" fill="#80b0f2"/>
        </g>
        <g id="ptn-4" data-name="ptn" transform="translate(-242 -1283)">
          <rect id="bg-3" data-name="bg" width="18" height="18" transform="translate(260 1283)" fill="#6d9ce8"/>
          <path id="ptn-5" data-name="ptn" d="M387.938,751.678h8v8h1v-8h8v-1h-8v-8h8v-1h-18v18h1Zm0-9h8v8h-8Z" transform="translate(-126.938 541.322)" fill="#80b0f2"/>
        </g>
        <g id="ptn-6" data-name="ptn" transform="translate(-224 -1283)">
          <rect id="bg-4" data-name="bg" width="18" height="18" transform="translate(260 1283)" fill="#6d9ce8"/>
          <path id="ptn-7" data-name="ptn" d="M387.938,751.678h8v8h1v-8h8v-1h-8v-8h8v-1h-18v18h1Zm0-9h8v8h-8Z" transform="translate(-126.938 541.322)" fill="#80b0f2"/>
        </g>
        <g id="ptn-8" data-name="ptn" transform="translate(-206 -1283)">
          <rect id="bg-5" data-name="bg" width="18" height="18" transform="translate(260 1283)" fill="#6d9ce8"/>
          <path id="ptn-9" data-name="ptn" d="M387.938,751.678h8v8h1v-8h8v-1h-8v-8h8v-1h-18v18h1Zm0-9h8v8h-8Z" transform="translate(-126.938 541.322)" fill="#80b0f2"/>
        </g>
        <g id="ptn-10" data-name="ptn" transform="translate(-188 -1283)">
          <rect id="bg-6" data-name="bg" width="18" height="18" transform="translate(260 1283)" fill="#6d9ce8"/>
          <path id="ptn-11" data-name="ptn" d="M387.938,751.678h8v8h1v-8h8v-1h-8v-8h8v-1h-18v18h1Zm0-9h8v8h-8Z" transform="translate(-126.938 541.322)" fill="#80b0f2"/>
        </g>
        <g id="ptn-12" data-name="ptn" transform="translate(-170 -1283)">
          <rect id="bg-7" data-name="bg" width="18" height="18" transform="translate(260 1283)" fill="#6d9ce8"/>
          <path id="ptn-13" data-name="ptn" d="M387.938,751.678h8v8h1v-8h8v-1h-8v-8h8v-1h-18v18h1Zm0-9h8v8h-8Z" transform="translate(-126.938 541.322)" fill="#80b0f2"/>
        </g>
        <g id="ptn-14" data-name="ptn" transform="translate(-152 -1283)">
          <rect id="bg-8" data-name="bg" width="18" height="18" transform="translate(260 1283)" fill="#6d9ce8"/>
          <path id="ptn-15" data-name="ptn" d="M387.938,751.678h8v8h1v-8h8v-1h-8v-8h8v-1h-18v18h1Zm0-9h8v8h-8Z" transform="translate(-126.938 541.322)" fill="#80b0f2"/>
        </g>
        <g id="ptn-16" data-name="ptn" transform="translate(-260 -1265)">
          <rect id="bg-9" data-name="bg" width="18" height="18" transform="translate(260 1283)" fill="#6d9ce8"/>
          <path id="ptn-17" data-name="ptn" d="M387.938,751.678h8v8h1v-8h8v-1h-8v-8h8v-1h-18v18h1Zm0-9h8v8h-8Z" transform="translate(-126.938 541.322)" fill="#80b0f2"/>
        </g>
        <g id="ptn-18" data-name="ptn" transform="translate(-242 -1265)">
          <rect id="bg-10" data-name="bg" width="18" height="18" transform="translate(260 1283)" fill="#6d9ce8"/>
          <path id="ptn-19" data-name="ptn" d="M387.938,751.678h8v8h1v-8h8v-1h-8v-8h8v-1h-18v18h1Zm0-9h8v8h-8Z" transform="translate(-126.938 541.322)" fill="#80b0f2"/>
        </g>
        <g id="ptn-20" data-name="ptn" transform="translate(-224 -1265)">
          <rect id="bg-11" data-name="bg" width="18" height="18" transform="translate(260 1283)" fill="#6d9ce8"/>
          <path id="ptn-21" data-name="ptn" d="M387.938,751.678h8v8h1v-8h8v-1h-8v-8h8v-1h-18v18h1Zm0-9h8v8h-8Z" transform="translate(-126.938 541.322)" fill="#80b0f2"/>
        </g>
        <g id="ptn-22" data-name="ptn" transform="translate(-206 -1265)">
          <rect id="bg-12" data-name="bg" width="18" height="18" transform="translate(260 1283)" fill="#6d9ce8"/>
          <path id="ptn-23" data-name="ptn" d="M387.938,751.678h8v8h1v-8h8v-1h-8v-8h8v-1h-18v18h1Zm0-9h8v8h-8Z" transform="translate(-126.938 541.322)" fill="#80b0f2"/>
        </g>
        <g id="ptn-24" data-name="ptn" transform="translate(-188 -1265)">
          <rect id="bg-13" data-name="bg" width="18" height="18" transform="translate(260 1283)" fill="#6d9ce8"/>
          <path id="ptn-25" data-name="ptn" d="M387.938,751.678h8v8h1v-8h8v-1h-8v-8h8v-1h-18v18h1Zm0-9h8v8h-8Z" transform="translate(-126.938 541.322)" fill="#80b0f2"/>
        </g>
        <g id="ptn-26" data-name="ptn" transform="translate(-170 -1265)">
          <rect id="bg-14" data-name="bg" width="18" height="18" transform="translate(260 1283)" fill="#6d9ce8"/>
          <path id="ptn-27" data-name="ptn" d="M387.938,751.678h8v8h1v-8h8v-1h-8v-8h8v-1h-18v18h1Zm0-9h8v8h-8Z" transform="translate(-126.938 541.322)" fill="#80b0f2"/>
        </g>
        <g id="ptn-28" data-name="ptn" transform="translate(-152 -1265)">
          <rect id="bg-15" data-name="bg" width="18" height="18" transform="translate(260 1283)" fill="#6d9ce8"/>
          <path id="ptn-29" data-name="ptn" d="M387.938,751.678h8v8h1v-8h8v-1h-8v-8h8v-1h-18v18h1Zm0-9h8v8h-8Z" transform="translate(-126.938 541.322)" fill="#80b0f2"/>
        </g>
        <g id="ptn-30" data-name="ptn" transform="translate(-260 -1247)">
          <rect id="bg-16" data-name="bg" width="18" height="18" transform="translate(260 1283)" fill="#6d9ce8"/>
          <path id="ptn-31" data-name="ptn" d="M387.938,751.678h8v8h1v-8h8v-1h-8v-8h8v-1h-18v18h1Zm0-9h8v8h-8Z" transform="translate(-126.938 541.322)" fill="#80b0f2"/>
        </g>
        <g id="ptn-32" data-name="ptn" transform="translate(-242 -1247)">
          <rect id="bg-17" data-name="bg" width="18" height="18" transform="translate(260 1283)" fill="#6d9ce8"/>
          <path id="ptn-33" data-name="ptn" d="M387.938,751.678h8v8h1v-8h8v-1h-8v-8h8v-1h-18v18h1Zm0-9h8v8h-8Z" transform="translate(-126.938 541.322)" fill="#80b0f2"/>
        </g>
        <g id="ptn-34" data-name="ptn" transform="translate(-224 -1247)">
          <rect id="bg-18" data-name="bg" width="18" height="18" transform="translate(260 1283)" fill="#6d9ce8"/>
          <path id="ptn-35" data-name="ptn" d="M387.938,751.678h8v8h1v-8h8v-1h-8v-8h8v-1h-18v18h1Zm0-9h8v8h-8Z" transform="translate(-126.938 541.322)" fill="#80b0f2"/>
        </g>
        <g id="ptn-36" data-name="ptn" transform="translate(-206 -1247)">
          <rect id="bg-19" data-name="bg" width="18" height="18" transform="translate(260 1283)" fill="#6d9ce8"/>
          <path id="ptn-37" data-name="ptn" d="M387.938,751.678h8v8h1v-8h8v-1h-8v-8h8v-1h-18v18h1Zm0-9h8v8h-8Z" transform="translate(-126.938 541.322)" fill="#80b0f2"/>
        </g>
        <g id="ptn-38" data-name="ptn" transform="translate(-188 -1247)">
          <rect id="bg-20" data-name="bg" width="18" height="18" transform="translate(260 1283)" fill="#6d9ce8"/>
          <path id="ptn-39" data-name="ptn" d="M387.938,751.678h8v8h1v-8h8v-1h-8v-8h8v-1h-18v18h1Zm0-9h8v8h-8Z" transform="translate(-126.938 541.322)" fill="#80b0f2"/>
        </g>
        <g id="ptn-40" data-name="ptn" transform="translate(-170 -1247)">
          <rect id="bg-21" data-name="bg" width="18" height="18" transform="translate(260 1283)" fill="#6d9ce8"/>
          <path id="ptn-41" data-name="ptn" d="M387.938,751.678h8v8h1v-8h8v-1h-8v-8h8v-1h-18v18h1Zm0-9h8v8h-8Z" transform="translate(-126.938 541.322)" fill="#80b0f2"/>
        </g>
        <g id="ptn-42" data-name="ptn" transform="translate(-152 -1247)">
          <rect id="bg-22" data-name="bg" width="18" height="18" transform="translate(260 1283)" fill="#6d9ce8"/>
          <path id="ptn-43" data-name="ptn" d="M387.938,751.678h8v8h1v-8h8v-1h-8v-8h8v-1h-18v18h1Zm0-9h8v8h-8Z" transform="translate(-126.938 541.322)" fill="#80b0f2"/>
        </g>
        <g id="ptn-44" data-name="ptn" transform="translate(-260 -1229)">
          <rect id="bg-23" data-name="bg" width="18" height="18" transform="translate(260 1283)" fill="#6d9ce8"/>
          <path id="ptn-45" data-name="ptn" d="M387.938,751.678h8v8h1v-8h8v-1h-8v-8h8v-1h-18v18h1Zm0-9h8v8h-8Z" transform="translate(-126.938 541.322)" fill="#80b0f2"/>
        </g>
        <g id="ptn-46" data-name="ptn" transform="translate(-242 -1229)">
          <rect id="bg-24" data-name="bg" width="18" height="18" transform="translate(260 1283)" fill="#6d9ce8"/>
          <path id="ptn-47" data-name="ptn" d="M387.938,751.678h8v8h1v-8h8v-1h-8v-8h8v-1h-18v18h1Zm0-9h8v8h-8Z" transform="translate(-126.938 541.322)" fill="#80b0f2"/>
        </g>
        <g id="ptn-48" data-name="ptn" transform="translate(-224 -1229)">
          <rect id="bg-25" data-name="bg" width="18" height="18" transform="translate(260 1283)" fill="#6d9ce8"/>
          <path id="ptn-49" data-name="ptn" d="M387.938,751.678h8v8h1v-8h8v-1h-8v-8h8v-1h-18v18h1Zm0-9h8v8h-8Z" transform="translate(-126.938 541.322)" fill="#80b0f2"/>
        </g>
        <g id="ptn-50" data-name="ptn" transform="translate(-206 -1229)">
          <rect id="bg-26" data-name="bg" width="18" height="18" transform="translate(260 1283)" fill="#6d9ce8"/>
          <path id="ptn-51" data-name="ptn" d="M387.938,751.678h8v8h1v-8h8v-1h-8v-8h8v-1h-18v18h1Zm0-9h8v8h-8Z" transform="translate(-126.938 541.322)" fill="#80b0f2"/>
        </g>
        <g id="ptn-52" data-name="ptn" transform="translate(-188 -1229)">
          <rect id="bg-27" data-name="bg" width="18" height="18" transform="translate(260 1283)" fill="#6d9ce8"/>
          <path id="ptn-53" data-name="ptn" d="M387.938,751.678h8v8h1v-8h8v-1h-8v-8h8v-1h-18v18h1Zm0-9h8v8h-8Z" transform="translate(-126.938 541.322)" fill="#80b0f2"/>
        </g>
        <g id="ptn-54" data-name="ptn" transform="translate(-170 -1229)">
          <rect id="bg-28" data-name="bg" width="18" height="18" transform="translate(260 1283)" fill="#6d9ce8"/>
          <path id="ptn-55" data-name="ptn" d="M387.938,751.678h8v8h1v-8h8v-1h-8v-8h8v-1h-18v18h1Zm0-9h8v8h-8Z" transform="translate(-126.938 541.322)" fill="#80b0f2"/>
        </g>
        <g id="ptn-56" data-name="ptn" transform="translate(-152 -1229)">
          <rect id="bg-29" data-name="bg" width="18" height="18" transform="translate(260 1283)" fill="#6d9ce8"/>
          <path id="ptn-57" data-name="ptn" d="M387.938,751.678h8v8h1v-8h8v-1h-8v-8h8v-1h-18v18h1Zm0-9h8v8h-8Z" transform="translate(-126.938 541.322)" fill="#80b0f2"/>
        </g>
        <g id="ptn-58" data-name="ptn" transform="translate(-260 -1211)">
          <rect id="bg-30" data-name="bg" width="18" height="18" transform="translate(260 1283)" fill="#6d9ce8"/>
          <path id="ptn-59" data-name="ptn" d="M387.938,751.678h8v8h1v-8h8v-1h-8v-8h8v-1h-18v18h1Zm0-9h8v8h-8Z" transform="translate(-126.938 541.322)" fill="#80b0f2"/>
        </g>
        <g id="ptn-60" data-name="ptn" transform="translate(-242 -1211)">
          <rect id="bg-31" data-name="bg" width="18" height="18" transform="translate(260 1283)" fill="#6d9ce8"/>
          <path id="ptn-61" data-name="ptn" d="M387.938,751.678h8v8h1v-8h8v-1h-8v-8h8v-1h-18v18h1Zm0-9h8v8h-8Z" transform="translate(-126.938 541.322)" fill="#80b0f2"/>
        </g>
        <g id="ptn-62" data-name="ptn" transform="translate(-224 -1211)">
          <rect id="bg-32" data-name="bg" width="18" height="18" transform="translate(260 1283)" fill="#6d9ce8"/>
          <path id="ptn-63" data-name="ptn" d="M387.938,751.678h8v8h1v-8h8v-1h-8v-8h8v-1h-18v18h1Zm0-9h8v8h-8Z" transform="translate(-126.938 541.322)" fill="#80b0f2"/>
        </g>
        <g id="ptn-64" data-name="ptn" transform="translate(-206 -1211)">
          <rect id="bg-33" data-name="bg" width="18" height="18" transform="translate(260 1283)" fill="#6d9ce8"/>
          <path id="ptn-65" data-name="ptn" d="M387.938,751.678h8v8h1v-8h8v-1h-8v-8h8v-1h-18v18h1Zm0-9h8v8h-8Z" transform="translate(-126.938 541.322)" fill="#80b0f2"/>
        </g>
        <g id="ptn-66" data-name="ptn" transform="translate(-188 -1211)">
          <rect id="bg-34" data-name="bg" width="18" height="18" transform="translate(260 1283)" fill="#6d9ce8"/>
          <path id="ptn-67" data-name="ptn" d="M387.938,751.678h8v8h1v-8h8v-1h-8v-8h8v-1h-18v18h1Zm0-9h8v8h-8Z" transform="translate(-126.938 541.322)" fill="#80b0f2"/>
        </g>
        <g id="ptn-68" data-name="ptn" transform="translate(-170 -1211)">
          <rect id="bg-35" data-name="bg" width="18" height="18" transform="translate(260 1283)" fill="#6d9ce8"/>
          <path id="ptn-69" data-name="ptn" d="M387.938,751.678h8v8h1v-8h8v-1h-8v-8h8v-1h-18v18h1Zm0-9h8v8h-8Z" transform="translate(-126.938 541.322)" fill="#80b0f2"/>
        </g>
        <g id="ptn-70" data-name="ptn" transform="translate(-152 -1211)">
          <rect id="bg-36" data-name="bg" width="18" height="18" transform="translate(260 1283)" fill="#6d9ce8"/>
          <path id="ptn-71" data-name="ptn" d="M387.938,751.678h8v8h1v-8h8v-1h-8v-8h8v-1h-18v18h1Zm0-9h8v8h-8Z" transform="translate(-126.938 541.322)" fill="#80b0f2"/>
        </g>
        <g id="ptn-72" data-name="ptn" transform="translate(-260 -1193)">
          <rect id="bg-37" data-name="bg" width="18" height="18" transform="translate(260 1283)" fill="#6d9ce8"/>
          <path id="ptn-73" data-name="ptn" d="M387.938,751.678h8v8h1v-8h8v-1h-8v-8h8v-1h-18v18h1Zm0-9h8v8h-8Z" transform="translate(-126.938 541.322)" fill="#80b0f2"/>
        </g>
        <g id="ptn-74" data-name="ptn" transform="translate(-242 -1193)">
          <rect id="bg-38" data-name="bg" width="18" height="18" transform="translate(260 1283)" fill="#6d9ce8"/>
          <path id="ptn-75" data-name="ptn" d="M387.938,751.678h8v8h1v-8h8v-1h-8v-8h8v-1h-18v18h1Zm0-9h8v8h-8Z" transform="translate(-126.938 541.322)" fill="#80b0f2"/>
        </g>
        <g id="ptn-76" data-name="ptn" transform="translate(-224 -1193)">
          <rect id="bg-39" data-name="bg" width="18" height="18" transform="translate(260 1283)" fill="#6d9ce8"/>
          <path id="ptn-77" data-name="ptn" d="M387.938,751.678h8v8h1v-8h8v-1h-8v-8h8v-1h-18v18h1Zm0-9h8v8h-8Z" transform="translate(-126.938 541.322)" fill="#80b0f2"/>
        </g>
        <g id="ptn-78" data-name="ptn" transform="translate(-206 -1193)">
          <rect id="bg-40" data-name="bg" width="18" height="18" transform="translate(260 1283)" fill="#6d9ce8"/>
          <path id="ptn-79" data-name="ptn" d="M387.938,751.678h8v8h1v-8h8v-1h-8v-8h8v-1h-18v18h1Zm0-9h8v8h-8Z" transform="translate(-126.938 541.322)" fill="#80b0f2"/>
        </g>
        <g id="ptn-80" data-name="ptn" transform="translate(-188 -1193)">
          <rect id="bg-41" data-name="bg" width="18" height="18" transform="translate(260 1283)" fill="#6d9ce8"/>
          <path id="ptn-81" data-name="ptn" d="M387.938,751.678h8v8h1v-8h8v-1h-8v-8h8v-1h-18v18h1Zm0-9h8v8h-8Z" transform="translate(-126.938 541.322)" fill="#80b0f2"/>
        </g>
        <g id="ptn-82" data-name="ptn" transform="translate(-170 -1193)">
          <rect id="bg-42" data-name="bg" width="18" height="18" transform="translate(260 1283)" fill="#6d9ce8"/>
          <path id="ptn-83" data-name="ptn" d="M387.938,751.678h8v8h1v-8h8v-1h-8v-8h8v-1h-18v18h1Zm0-9h8v8h-8Z" transform="translate(-126.938 541.322)" fill="#80b0f2"/>
        </g>
        <g id="ptn-84" data-name="ptn" transform="translate(-152 -1193)">
          <rect id="bg-43" data-name="bg" width="18" height="18" transform="translate(260 1283)" fill="#6d9ce8"/>
          <path id="ptn-85" data-name="ptn" d="M387.938,751.678h8v8h1v-8h8v-1h-8v-8h8v-1h-18v18h1Zm0-9h8v8h-8Z" transform="translate(-126.938 541.322)" fill="#80b0f2"/>
        </g>
        <g id="ptn-86" data-name="ptn" transform="translate(-260 -1175)">
          <rect id="bg-44" data-name="bg" width="18" height="18" transform="translate(260 1283)" fill="#6d9ce8"/>
          <path id="ptn-87" data-name="ptn" d="M387.938,751.678h8v8h1v-8h8v-1h-8v-8h8v-1h-18v18h1Zm0-9h8v8h-8Z" transform="translate(-126.938 541.322)" fill="#80b0f2"/>
        </g>
        <g id="ptn-88" data-name="ptn" transform="translate(-242 -1175)">
          <rect id="bg-45" data-name="bg" width="18" height="18" transform="translate(260 1283)" fill="#6d9ce8"/>
          <path id="ptn-89" data-name="ptn" d="M387.938,751.678h8v8h1v-8h8v-1h-8v-8h8v-1h-18v18h1Zm0-9h8v8h-8Z" transform="translate(-126.938 541.322)" fill="#80b0f2"/>
        </g>
        <g id="ptn-90" data-name="ptn" transform="translate(-224 -1175)">
          <rect id="bg-46" data-name="bg" width="18" height="18" transform="translate(260 1283)" fill="#6d9ce8"/>
          <path id="ptn-91" data-name="ptn" d="M387.938,751.678h8v8h1v-8h8v-1h-8v-8h8v-1h-18v18h1Zm0-9h8v8h-8Z" transform="translate(-126.938 541.322)" fill="#80b0f2"/>
        </g>
        <g id="ptn-92" data-name="ptn" transform="translate(-206 -1175)">
          <rect id="bg-47" data-name="bg" width="18" height="18" transform="translate(260 1283)" fill="#6d9ce8"/>
          <path id="ptn-93" data-name="ptn" d="M387.938,751.678h8v8h1v-8h8v-1h-8v-8h8v-1h-18v18h1Zm0-9h8v8h-8Z" transform="translate(-126.938 541.322)" fill="#80b0f2"/>
        </g>
        <g id="ptn-94" data-name="ptn" transform="translate(-188 -1175)">
          <rect id="bg-48" data-name="bg" width="18" height="18" transform="translate(260 1283)" fill="#6d9ce8"/>
          <path id="ptn-95" data-name="ptn" d="M387.938,751.678h8v8h1v-8h8v-1h-8v-8h8v-1h-18v18h1Zm0-9h8v8h-8Z" transform="translate(-126.938 541.322)" fill="#80b0f2"/>
        </g>
        <g id="ptn-96" data-name="ptn" transform="translate(-170 -1175)">
          <rect id="bg-49" data-name="bg" width="18" height="18" transform="translate(260 1283)" fill="#6d9ce8"/>
          <path id="ptn-97" data-name="ptn" d="M387.938,751.678h8v8h1v-8h8v-1h-8v-8h8v-1h-18v18h1Zm0-9h8v8h-8Z" transform="translate(-126.938 541.322)" fill="#80b0f2"/>
        </g>
        <g id="ptn-98" data-name="ptn" transform="translate(-152 -1175)">
          <rect id="bg-50" data-name="bg" width="18" height="18" transform="translate(260 1283)" fill="#6d9ce8"/>
          <path id="ptn-99" data-name="ptn" d="M387.938,751.678h8v8h1v-8h8v-1h-8v-8h8v-1h-18v18h1Zm0-9h8v8h-8Z" transform="translate(-126.938 541.322)" fill="#80b0f2"/>
        </g>
      </g>
      <g id="bg-51" data-name="bg" transform="translate(260 1283)" fill="none" stroke="#000" stroke-width="1">
        <rect width="124" height="115" stroke="none"/>
        <rect x="0.5" y="0.5" width="123" height="114" fill="none"/>
      </g>
    </g>
  </g>
</svg>
